PROJ4_STRING              : +proj=longlat +datum=WGS84 +no_defs
COMENT1                   : Automatic Generated Grid Data File
COMENT2                   : Based On G:\Aplica\Alex_Sines\Sines1\General Data\Digital Terrain\Alex_New_MalhaSines_NestSmooth_v02_edited4_Smoothed.dat
LATITUDE                  : 39.69001
LONGITUDE                 : -8.850002
COORD_TIP                 : 4
ILB_IUB                   : 1 32
JLB_JUB                   : 1 32
ORIGIN                    : -9.24 37.62
GRID_ANGLE                : 0
<BeginXX>
0
0.015
0.029999999
0.044999998
0.059999999
0.074999996
0.089999996
0.105
0.12
0.135
0.15
0.165
0.18
0.195
0.21
0.225
0.24
0.255
0.27
0.285
0.3
0.3149999
0.3299999
0.3449999
0.3599999
0.3749999
0.3899999
0.4049999
0.4199998
0.4349998
0.4499998
0.4649998
0.4799998
<EndXX>
<BeginYY>
0
0.015
0.029999999
0.044999998
0.059999999
0.074999996
0.089999996
0.105
0.12
0.135
0.15
0.165
0.18
0.195
0.21
0.225
0.24
0.255
0.27
0.285
0.3
0.3149999
0.3299999
0.3449999
0.3599999
0.3749999
0.3899999
0.4049999
0.4199998
0.4349998
0.4499998
0.4649998
0.4799998
<EndYY>
FILL_VALUE                : -99
<BeginGridData2D>
484.196
484.196
484.196
484.196
383.995
383.995
383.995
383.995
289.82
289.82
289.82
289.82
239.681
219.681
219.681
209.681
165.258
142.14
142.14
142.14
119.19
119.19
119.19
119.19
69.184
69.184
69.184
69.184
-99
-99
-99
-99
484.196
485.3773
483.8893
482.157
386.4525
384.9479
383.3438
381.7034
289.82
289.82
289.82
288.8979
226.9218
220.679
219.5242
217.8888
153.7418
142.14
142.14
141.981
119.19
119.19
119.19
119.0218
71.31001
69.93333
68.90372
67.60483
-99
-99
-99
-99
484.196
484.9749
481.7106
475.6202
393.7539
387.3974
381.6804
375.7002
299.7583
294.8398
289.82
285.9794
228.7214
223.2612
216.7896
209.232
147.51
144.1489
142.14
141.5803
123.338
121.8574
119.19
117.8192
77.58945
71.31001
67.33741
62.63631
-99
-99
-99
-99
484.196
484.8506
481.5629
464.478
407.0727
393.5896
380.1895
368.7256
314.1015
302.8083
293.0363
282.4352
240.9937
227.33
210.4658
195.1877
151.6284
144.5389
141.8495
141.8495
130.4727
126.9783
121.5006
116.3811
88.30302
78.4462
68.0889
55.45812
22.87675
-99
-99
-99
477.624
478.5375
476.0058
461.1771
424.2656
401.2103
381.0672
358.7767
332.7225
314.0967
288.4866
272.4884
250.2126
231.2375
198.2507
171.8807
154.3243
135.7348
126.2975
126.7105
124.1981
120.4441
119.19
114.85
100.26
86.40163
58.77221
44.35079
29.045
-99
-99
-99
477.624
478.3813
476.4479
461.9462
427.3332
409.1821
389.1234
364.5188
338.1735
311.4264
288.3255
265.8889
245.7276
223.4069
194.6273
169.2139
152.157
133.3906
120.6888
115.6379
110.821
116.6183
115.3159
107.6367
84.39001
78.4855
64.43831
33.71867
32.41196
8.079128
-99
-99
477.624
478.3505
476.6389
464.6401
435.5721
418.9308
395.9443
363.075
324.5699
293.1555
268.117
248.9604
238.2211
215.2947
191.1521
169.5531
155.8183
148.1922
128.0619
115.7774
115.4197
117.9192
113.5644
103.5883
85.74007
74.21184
59.34713
37.51285
20.64427
5.147593
-99
-99
477.624
478.1723
476.0487
465.0369
440.8244
424.2936
408.494
361.8884
296.1423
262.6814
257.0187
242.26
231.865
208.2907
182.4654
167.9313
158.9487
152.3973
142.14
127.1019
117.0408
114.4932
106.0471
97.14302
80.96971
66.51089
54.13606
32.15849
14.21962
-99
-99
-99
464.774
465.8705
465.4397
457.4842
439.6861
428.3064
406.6272
365.4517
300.84
242.26
238.5673
224.0198
221.107
199.2403
174.9778
164.9137
157.0518
151.8872
145.5567
137.798
128.2529
122.6009
103.9417
87.30633
82.6161
64.55894
52.41584
37.03329
-99
-99
-99
-99
464.774
465.5957
464.88
455.1938
432.7526
421.4844
399.9246
372.3172
342.9825
284.4239
242.26
224.2823
214.0706
188.6175
171.9374
162.5159
155.0279
149.9738
145.3375
139.831
134.4889
124.7309
104.4155
95.6775
87.33274
73.16496
57.26958
41.50602
16.85
-99
-99
-99
464.774
465.2949
463.0992
449.0158
419.0759
405.2182
387.865
367.4604
343.9663
306.2738
267.0328
236.9987
202.69
184.1303
168.1123
160.7466
156.0889
150.6794
144.7715
139.0893
130.7688
126.1186
113.4459
87.03177
77.90919
60.3
49.50327
38.95439
19.66531
-99
-99
-99
464.774
464.9363
461.2927
445.3755
411.7936
397.1736
379.3294
360.7044
341.5643
311.1071
276.2955
238.3774
207.8627
180.2247
165.3263
159.0203
156.3291
149.8867
142.14
136.8746
131.461
124.4292
113.5278
84.39001
74.94662
52.5344
40.99034
32.66209
21.02375
-99
-99
-99
449.956
450.7247
447.3704
433.995
402.8037
386.1908
372.1366
355.1851
337.2173
313.5623
282.8857
238.0758
202.69
177.7038
163.8343
156.5006
153.8286
147.5463
140.9411
135.3381
128.5006
118.2869
106.1146
89.56666
74.4341
58.94122
37.49212
28.55871
11.31391
-99
-99
-99
449.956
451.2679
445.0859
429.4406
397.7682
380.5686
365.6265
346.43
330.7759
311.0826
281.2643
246.9405
209.8241
177.5318
163.9466
156.4666
151.4436
145.9403
139.5174
133.1898
121.4631
107.6241
98.36955
87.54004
56.60847
39.25501
29.13135
23.79997
18.98249
10
-99
-99
449.956
451.5422
444.3094
421.514
391.9308
376.407
361.6686
344.0401
330.59
312.4942
286.8842
256.9401
222.3849
180.3925
165.0533
156.7426
154.2421
147.7125
140.46
130.5809
113.5941
102.4698
96.99324
73.0625
60.2584
34.26046
32.9849
33.22027
20.3775
5
-99
-99
449.956
451.7429
451.7769
436.7643
397.3885
375.2228
355.8394
335.7938
318.2087
301.4958
281.3686
255.0102
224.9823
180.8861
161.968
153.9133
148.5903
142.14
136.2254
121.2113
110.0741
100.0478
77.5762
62.8488
57.34421
52.26861
38.92577
34.6972
26.64302
-99
-99
-99
457.159
458.197
456.7042
440.9436
403.1601
367.0327
346.43
327.2335
311.8086
295.5853
278.4334
255.4268
226.0714
179.0253
157.8271
150.6421
145.1981
133.4841
131.6331
118.246
108.3221
94.57729
72.22607
60.3
53.68671
51.84
41.81077
36.2534
24.46895
-99
-99
-99
457.159
458.3574
455.6304
442.5268
403.5081
368.0656
339.5762
313.9229
295.9768
289.82
274.1713
253.9669
225.2702
174.0487
154.4574
148.8911
142.14
133.4957
126.1841
115.4987
105.1603
88.80608
73.81349
59.44271
53.39437
46.00216
43.52
35.83652
20.27622
-99
-99
-99
457.159
458.2032
455.7246
441.2147
407.7274
371.8702
339.383
306.0183
270.9638
283.1406
268.2628
251.8882
219.6872
173.738
155.5147
144.9464
136.8438
128.2948
120.8913
110.5191
96.95823
78.99554
62.55012
58.64981
52.29658
45.23535
41.57783
32.63558
17.4862
-99
-99
-99
457.159
458.1249
455.4667
440.4997
407.7062
382.2953
352.0449
318.8489
288.875
274.1353
262.0059
244.6741
213.9259
172.9475
154.9543
145.3245
137.5246
131.0166
119.19
109.4969
97.72101
83.3034
71.00813
57.645
46.02668
36.50235
32.85239
27.97019
16.3075
-99
-99
-99
470.752
470.984
465.5337
445.9269
407.1706
388.0525
358.6504
329.2753
300.3307
276.437
259.7171
242.0407
213.489
173.0421
155.2745
146.1375
138.8312
132.564
128.1339
114.0124
98.57172
86.55935
68.46629
49.45985
37.8513
25.76023
17.52147
12.20062
-99
-99
-99
-99
470.752
471.3902
466.9875
447.5405
409.9674
386.7046
363.2888
342.6611
314.4582
281.1678
261.8323
242.26
213.9553
177.8492
156.0548
147.2013
139.1992
134.8921
129.4853
117.5748
102.5319
89.32799
67.59678
26.61071
31.47052
-99
-99
-99
-99
-99
-99
-99
470.752
472.0016
469.054
453.1964
413.99
392.2839
371.2183
339.9116
319.6946
286.6505
264.4933
245.8581
220.6233
176.8362
157.6276
148.171
139.9693
133.4996
129.8482
116.5459
100.26
75.89156
46.91721
-99
-99
-99
-99
-99
-99
-99
-99
-99
470.752
472.7783
471.7717
458.5506
422.5127
397.7226
373.602
344.8463
315.8822
296.9721
268.4729
250.2183
224.9556
184.4858
157.6358
146.3002
138.9735
134.2218
129.5175
111.2377
81.71902
60.07796
35.54965
20.15763
-99
-99
-99
-99
-99
-99
-99
-99
535.138
534.2488
523.9095
492.6366
432.9169
406.1102
382.3936
356.5806
323.26
305.3888
275.8366
246.5875
220.3651
181.21
158.854
147.018
140.5214
135.9372
129.725
112.5854
84.38212
67.57296
49.85238
36.48
24.71844
-99
-99
-99
-99
-99
-99
-99
535.138
535.8048
528.8555
499.4874
444.5147
413.99
392.2236
368.6177
339.8351
314.2899
289.82
250.2564
226.598
177.3561
154.521
145.4184
138.906
134.0886
128.8859
116.5618
93.89307
80.22714
71.31001
48.51037
34.56657
17.84103
-99
-99
-99
-99
-99
-99
535.138
537.0914
533.8373
512.8769
456.2094
432.9718
406.5134
383.4093
359.7561
330.0794
311.1467
252.3322
235.6776
179.4248
154.3516
145.2517
138.1691
133.3393
128.0251
121.9756
111.4402
102.1263
88.21469
62.23245
41.24004
30.22069
-99
-99
-99
-99
-99
-99
535.138
538.2943
539.6435
524.2416
475.8764
448.2548
422.5285
395.6848
371.0589
341.7435
317.92
274.2558
214.1052
175.3565
162.4617
144.88
136.9888
131.8804
125.9136
120.718
114.4621
106.3295
95.49511
72.11095
48.45533
35.98244
22.79771
-99
-99
-99
-99
-99
600
642.3309
625.9675
582.0839
490.5138
467.977
455.3733
419.7524
342.3169
325.4308
305.6967
272.3533
248.9984
200
165.8157
152.56
132.3072
129.5284
127.8118
125.1054
113.9497
109.9962
104.0918
94.1559
49.98053
42.02509
35.75348
-99
-99
-99
-99
-99
650
643.1921
633.5464
623.5079
500
500
470.8926
436.2661
346.43
329.563
305.9835
274.2517
248.7598
230
166.091
155.5875
129.7713
128.3762
127.3652
126.252
111.0059
110.0241
108.0577
104.1186
49.02128
44.00163
41.27272
38.18331
-99
-99
-99
-99
650
650.9942
644.7491
640.4786
510
500
500
446.6586
346.43
331.6823
306.225
279.0513
255
250
177.4023
158.124
128.2978
127.9106
127.6912
127.4293
108.9228
108.8001
108.3966
107.5456
45.47839
44.05066
43.16811
42.52514
-99
-99
-99
-99
644.338
644.338
644.338
644.338
510
510
510
462.4951
351.7366
333.4207
305.4833
278.8231
260
255
186.6078
169.0798
127.872
127.872
127.872
127.872
108.249
108.249
108.249
108.249
43.52
43.52
43.52
43.52
-99
-99
-99
-99
<EndGridData2D>
